%YAML 1.1
%TAG !u! tag:unity3d.com,2011:
--- !u!1045 &1
EditorBuildSettings:
  m_ObjectHideFlags: 0
  serializedVersion: 2
  m_Scenes:
  - enabled: 1
    path: Assets/Scenes/TitleScene.unity
    guid: 2cda990e2423bbf4892e6590ba056729
  - enabled: 1
    path: Assets/Scenes/GameScene.unity
    guid: a19ff222e54c740efbbf4515b0100aef
  - enabled: 1
    path: Assets/Scenes/InputPlayerNameScene.unity
    guid: 8312b394754784a35b968b1bed0cae89
  - enabled: 1
    path: Assets/Scenes/ResultScene.unity
    guid: fca615761967a4b45ad900b682e87858
  m_configObjects: {}
